<svg width="437" height="74" viewBox="0 0 437 74" fill="none" xmlns="http://www.w3.org/2000/svg">
<path d="M29.2852 73.0425C29.2852 59.1646 29.2852 45.3212 29.2852 31.4087C29.5322 31.4087 39.7633 31.3741 44.6464 31.4318C46.5647 31.4548 48.5121 31.6623 50.1689 32.5498C51.8837 33.4604 52.901 34.809 53.6713 36.319C55.0519 39.0623 55.2844 41.9324 55.0664 44.8141C54.892 47.2346 54.2235 49.586 52.4796 51.6493C51.2152 53.1362 49.4277 54.335 46.9862 54.6347C47.4076 55.0611 48.4394 55.9833 49.2388 56.8708C52 59.9023 57.5661 72.812 57.6533 73.0656C55.0519 73.0656 52.4941 73.0656 49.8637 73.0656C49.1661 71.6824 44.3557 62.1615 42.5246 58.8418C40.926 55.9602 39.7633 55.649 35.7087 55.7527C35.7087 61.5045 35.7087 67.2562 35.7087 73.054C33.5433 73.0425 31.4506 73.0425 29.2852 73.0425ZM35.7232 48.8714C38.499 48.8714 41.2021 48.9175 43.9052 48.8483C45.1696 48.8138 46.4049 48.5602 47.1606 47.5804C48.6429 45.667 48.6574 43.7306 48.1343 41.5982C47.6401 39.5926 46.2305 38.4745 43.3384 38.5552C41.1294 38.5552 36.1156 38.5667 35.7377 38.5667C35.7232 42.0708 35.7232 45.4826 35.7232 48.8714Z" fill="white"/>
<path d="M90.424 52.0408C90.3804 56.8935 89.9008 60.8471 88.0696 64.9274C87.0523 67.1982 85.6427 69.2845 83.5209 71.0134C81.3264 72.8001 78.6378 73.7452 75.4406 73.8144C71.9236 73.8951 68.9299 72.9384 66.5029 71.0019C64.1776 69.1346 62.6953 66.8409 61.6925 64.3511C60.0648 60.3399 59.5998 53.9773 59.6434 52.1676C59.7596 47.8336 60.0794 43.4997 62.0704 39.3847C63.2039 37.0448 66.2413 31.5813 73.1735 30.7859C81.2973 30.1174 84.4655 34.3361 86.0932 36.261C88.0696 38.9352 89.116 41.8629 89.7118 44.8828C90.0316 46.5427 90.4966 50.7729 90.424 52.0408ZM83.6516 52.133C83.579 47.2688 82.8669 42.5314 79.8004 39.7766C78.3181 38.3819 75.862 37.6788 73.6385 38.1283C71.2697 38.6124 69.8745 39.9495 68.7991 41.5517C67.0697 44.1106 66.6337 46.9461 66.4738 49.7816C66.2994 52.7555 66.3285 55.7293 67.0842 58.6686C67.7236 61.1237 68.7119 63.4521 71.0807 65.2041C73.7838 67.1982 77.2427 66.8409 79.5679 64.8007C83.6807 61.1237 83.5935 54.9801 83.6516 52.133Z" fill="white"/>
<path d="M6.37992 57.2751C6.37992 62.6349 6.37992 67.8218 6.37992 73.0434C4.22906 73.0434 2.13633 73.0434 0 73.0434C0 59.1885 0 45.3336 0 31.4096C0.232526 31.4096 9.1557 31.3635 13.3848 31.4326C15.245 31.4672 17.1778 31.5249 18.8055 32.447C24.4152 36.2392 24.2263 43.0053 24.0664 46.4863C23.9501 48.8031 23.2526 51.0508 21.8719 53.1255C20.2152 55.6268 17.7591 57.2405 14.0097 57.2636C11.51 57.2866 8.99583 57.2751 6.37992 57.2751ZM6.39445 50.2093C8.29826 50.2093 10.1439 50.2554 11.9751 50.1978C14.1841 50.1286 15.8844 49.3448 16.6982 47.6274C17.6574 45.5987 17.7155 43.524 16.8581 41.4722C16.2041 39.9046 14.9979 38.7059 12.6581 38.6713C10.609 38.6367 8.42905 38.6137 6.37992 38.5906C6.35086 38.5906 6.39445 46.3018 6.39445 50.2093Z" fill="white"/>
<path d="M394.423 54.8893C394.263 54.774 394.147 54.6818 393.987 54.5665C393.987 46.5556 393.987 38.5216 393.987 30.4069C392.534 30.4069 391.11 30.4069 389.613 30.4069C389.613 29.2082 389.613 28.0901 389.613 26.9259C348.223 26.9259 306.907 26.9259 265.59 26.9259C265.473 26.7991 265.386 26.6954 265.284 26.5686C206.906 26.5686 148.542 26.5686 90.1055 26.5686C90.12 26.3957 90.1491 26.2459 90.1636 26.073C148.571 26.073 206.921 26.073 265.27 26.073C265.386 25.9462 265.473 25.8309 265.575 25.7041C306.877 25.7041 348.194 25.7041 389.569 25.7041C389.569 24.563 389.569 23.4449 389.569 22.2692C391.052 22.2692 392.476 22.2692 393.958 22.2692C393.958 17.7278 393.958 13.267 393.958 8.79473C394.133 8.71405 394.249 8.65641 394.409 8.58725C394.409 5.75173 394.409 2.91621 394.409 0.0461061C394.627 0.0345795 394.816 0.023053 395.048 0C395.048 2.8701 395.048 5.70562 395.048 8.59878C395.194 8.66794 395.368 8.7371 395.499 8.79473C395.499 13.2901 395.499 17.7163 395.499 22.2116C396.908 22.2116 398.289 22.2116 399.742 22.2116C399.742 23.4104 399.742 24.5284 399.742 25.6926C407.576 25.6926 415.322 25.6926 423.053 25.6926C423.184 25.8194 423.3 25.9116 423.445 26.0384C427.587 26.0384 431.744 26.0384 435.958 26.0384C435.973 26.2228 435.987 26.3611 436.002 26.5571C431.802 26.5571 427.645 26.5571 423.489 26.5571C423.344 26.6839 423.227 26.7761 423.082 26.9029C415.365 26.9029 407.619 26.9029 399.786 26.9029C399.786 28.0555 399.786 29.1851 399.786 30.3724C398.318 30.3724 396.952 30.3724 395.528 30.3724C395.528 38.4755 395.528 46.5095 395.528 54.5435C395.368 54.6472 395.252 54.7394 395.092 54.8432C395.092 60.9176 395.092 67.0152 395.092 73.1357C394.859 73.1473 394.685 73.1473 394.438 73.1588C394.423 67.0497 394.423 60.9637 394.423 54.8893ZM391.11 23.5141C391.11 24.3901 391.11 25.2085 391.11 26.0153C392.243 26.0153 393.304 26.0153 394.351 26.0153C394.351 25.1624 394.351 24.344 394.351 23.5141C393.246 23.5141 392.185 23.5141 391.11 23.5141ZM394.365 26.6147C393.261 26.6147 392.214 26.6147 391.11 26.6147C391.11 27.4562 391.11 28.2861 391.11 29.116C392.214 29.116 393.275 29.116 394.365 29.116C394.365 28.2745 394.365 27.4792 394.365 26.6147ZM398.289 23.5256C397.199 23.5256 396.167 23.5256 395.135 23.5256C395.135 24.3901 395.135 25.22 395.135 26.0153C396.211 26.0153 397.243 26.0153 398.289 26.0153C398.289 25.1854 398.289 24.3786 398.289 23.5256ZM395.135 26.6032C395.135 27.4446 395.135 28.2745 395.135 29.0929C396.225 29.0929 397.243 29.0929 398.245 29.0929C398.245 28.24 398.245 27.4216 398.245 26.6032C397.185 26.6032 396.167 26.6032 395.135 26.6032Z" fill="white"/>
<path d="M262.317 73.0539C261.619 73.0539 261.082 73.0539 260.515 73.0539C255.85 67.233 251.185 61.4121 246.476 55.5335C243.904 57.6429 241.346 59.7523 238.759 61.8847C238.759 65.5731 238.759 69.2847 238.759 73.0423C238.323 73.0423 237.931 73.0423 237.48 73.0423C237.48 59.222 237.48 45.4017 237.48 31.5469C237.887 31.5469 238.28 31.5469 238.745 31.5469C238.745 41.0101 238.745 50.4734 238.745 60.1326C245.735 54.3694 252.58 48.7444 259.454 43.0734C261.387 43.0734 263.363 43.0734 265.427 43.0734C265.427 39.9497 265.427 36.8491 265.427 33.7139C265.907 33.7139 266.314 33.7139 266.764 33.7139C266.764 36.826 266.764 39.9151 266.764 43.0734C269.089 43.0734 271.356 43.0734 273.653 43.0734C273.653 43.5229 273.653 43.9148 273.653 44.3413C271.371 44.3413 269.133 44.3413 266.793 44.3413C266.793 44.5718 266.764 59.8099 266.822 67.256C267.098 71.3825 268.392 71.8436 270.441 71.7975C271.415 71.8551 272.403 71.809 273.406 71.809C273.406 72.0972 273.406 72.5006 273.406 73.0654C272.025 73.0654 270.659 73.1922 269.336 73.0308C267.302 72.7887 265.907 71.4401 265.718 69.7227C265.572 68.4087 265.456 67.0946 265.456 65.7806C265.427 58.8878 265.442 44.6756 265.442 44.3989C263.61 44.3989 261.794 44.3989 259.876 44.3989C255.821 47.7301 251.708 51.1304 247.508 54.5884C252.42 60.7205 257.332 66.8411 262.317 73.0539Z" fill="white"/>
<path d="M142.784 73.0539C142.246 73.0539 141.781 73.0539 141.273 73.0539C139.441 68.5239 137.625 63.994 135.794 59.4641C128.731 59.4641 121.697 59.4641 114.619 59.4641C112.774 63.9825 110.928 68.5009 109.082 73.0423C108.574 73.0423 108.109 73.0423 107.527 73.0423C113.195 59.1875 118.863 45.3556 124.531 31.5469C125.127 31.5469 125.664 31.5469 126.275 31.5469C131.768 45.3672 137.262 59.1875 142.784 73.0539ZM115.143 58.1501C121.857 58.1501 128.513 58.1501 135.271 58.1501C132.001 49.7703 128.745 41.4136 125.432 32.9301C121.973 41.4251 118.572 49.7703 115.143 58.1501Z" fill="white"/>
<path d="M232.975 58.4045C224.444 58.4045 215.928 58.3814 207.615 58.3814C207.658 61.7011 208.341 64.1562 208.981 65.7815C210.536 70.5073 214.881 72.1787 217.381 72.5014C225.912 73.4351 229.181 68.4556 230.228 66.035C230.693 64.9515 230.94 63.8104 231.303 62.6578C231.623 62.6578 232.03 62.6578 232.597 62.6578C232.379 63.649 232.277 64.6288 231.957 65.5624C231.202 67.764 229.937 69.735 227.786 71.3142C225.955 72.6628 223.833 73.4812 221.348 73.7232C218.849 73.9653 216.422 73.8039 214.125 72.9279C211.364 71.879 209.693 70.0347 208.516 67.8678C207.353 65.7353 206.801 63.4877 206.539 61.1709C206.089 57.1366 206.292 53.1599 208.298 49.3908C209.838 46.4976 212.222 44.0655 216.305 42.9013C225.229 40.9879 228.905 45.587 230.562 48.4917C231.652 50.3936 232.277 52.3876 232.611 54.4394C232.815 55.7188 232.858 57.0213 232.975 58.4045ZM231.623 57.1135C231.536 53.9553 230.591 50.3705 228.687 47.8577C226.943 45.5063 224.429 44.0425 220.999 43.7543C216.305 43.4892 213.835 44.7225 211.393 47.2353C209.577 49.1141 207.847 52.3646 207.6 57.102C215.622 57.1135 223.528 57.1135 231.623 57.1135Z" fill="white"/>
<path d="M161.65 73.0539C161.185 73.0539 160.793 73.0539 160.371 73.0539C160.371 59.222 160.371 45.4017 160.371 31.5469C160.763 31.5469 161.17 31.5469 161.65 31.5469C161.65 41.0332 161.65 50.5195 161.65 60.1557C168.64 54.3924 175.5 48.7329 182.345 43.0964C182.984 43.0964 183.566 43.0964 184.365 43.0964C179.642 46.9924 175.049 50.7846 170.442 54.5884C175.369 60.732 180.296 66.8526 185.251 73.0423C184.612 73.0423 184.074 73.0423 183.435 73.0423C178.799 67.2445 174.105 61.4005 169.411 55.5451C166.824 57.6544 164.266 59.7523 161.635 61.8962C161.65 65.5731 161.65 69.2847 161.65 73.0539Z" fill="white"/>
<path d="M300.598 73.0533C300.162 73.0533 299.784 73.0533 299.348 73.0533C299.348 70.8056 299.348 68.581 299.348 66.4832C298.737 67.5206 298.171 68.7078 297.357 69.7683C295.715 71.9122 293.418 73.3645 290.163 73.6988C286.588 74.0677 283.42 73.4798 280.891 71.3128C279.263 69.9296 278.348 68.2468 277.97 66.414C277.708 65.1115 277.578 63.7745 277.563 62.4489C277.519 56.2361 277.549 50.0118 277.549 43.799C277.549 43.58 277.549 43.361 277.549 43.1074C277.999 43.1074 278.406 43.1074 278.886 43.1074C278.886 43.338 278.886 43.5454 278.886 43.7644C278.886 50.323 278.857 56.8816 278.9 63.4402C278.915 65.2844 279.322 67.1056 280.484 68.7424C281.923 70.7826 284.088 72.0736 287.053 72.4078C291.311 72.8919 294.654 71.3013 296.659 68.5349C298.011 66.6791 298.825 64.6966 298.999 62.5642C299.173 60.5701 299.246 58.5645 299.261 56.5589C299.304 52.2941 299.275 48.0177 299.275 43.7529C299.275 43.5454 299.275 43.3495 299.275 43.1074C299.726 43.1074 300.118 43.1074 300.569 43.1074C300.598 53.0779 300.598 63.0368 300.598 73.0533Z" fill="white"/>
<path d="M359.094 62.9468C359.631 62.9468 359.922 62.9468 360.198 62.9468C360.329 63.9496 360.387 64.9409 360.576 65.9091C361.259 69.4477 363.788 71.9144 368.54 72.6406C371.083 73.0325 373.598 72.9518 375.981 72.1104C378.917 71.073 380.762 69.3555 381.126 66.7275C381.3 65.4135 381.227 64.1455 380.835 62.8776C380.457 61.6443 379.585 60.7222 378.117 60.1113C374.891 58.7742 372.072 58.3362 368.685 57.3449C360.809 55.1203 359.472 53.691 360.562 46.9365C361.085 45.1268 362.349 43.928 364.297 43.0981C368.177 41.4498 372.202 41.3346 376.184 42.7062C379.076 43.6975 380.704 45.6109 381.242 48.0776C381.46 49.0804 381.562 50.0947 381.721 51.1436C381.285 51.1436 380.966 51.1436 380.704 51.1436C380.515 50.0947 380.413 49.0458 380.123 48.0315C379.309 45.2305 376.955 43.6284 373.51 43.0405C369.979 42.4296 366.622 42.8561 363.686 44.6312C362.349 45.438 361.681 46.5791 361.535 47.8816C360.634 53.2415 363.192 54.6131 366.418 55.662C370.444 56.8147 373.162 57.4371 376.984 58.4976C380.021 59.339 381.605 61.1371 382.027 63.6153C382.288 65.1599 382.332 66.716 381.823 68.2375C381.024 70.658 378.975 72.2256 376.17 73.1132C372.624 74.2312 369.005 74.1736 365.532 72.9403C362.291 71.7876 360.445 69.6667 359.748 66.935C359.443 65.644 359.312 64.3184 359.094 62.9468Z" fill="white"/>
<path d="M353.251 63.0725C348.077 63.0725 342.962 63.0725 337.832 63.0725C336.466 66.4036 335.1 69.7348 333.734 73.0544C333.312 73.0544 332.978 73.0544 332.527 73.0544C336.698 62.888 340.855 52.7562 345.011 42.5898C345.432 42.5898 345.839 42.5898 346.319 42.5898C350.345 52.6986 354.385 62.8419 358.439 73.0314C358.018 73.0314 357.727 73.0314 357.277 73.0314C355.954 69.7809 354.617 66.4497 353.251 63.0725ZM338.21 62.0581C343.122 62.0581 347.961 62.0581 352.844 62.0581C350.475 55.9837 348.107 49.9438 345.694 43.7771C343.165 49.9668 340.695 56.0067 338.21 62.0581Z" fill="white"/>
<path d="M196.004 44.3653C194.115 44.3653 192.313 44.3653 190.453 44.3653C190.453 43.9273 190.453 43.547 190.453 43.109C192.269 43.109 194.086 43.109 195.99 43.109C195.99 39.9622 195.99 36.8501 195.99 33.7148C196.469 33.7148 196.876 33.7148 197.327 33.7148C197.327 36.8155 197.327 39.9046 197.327 43.0628C199.608 43.0628 201.832 43.0628 204.084 43.0628C204.084 43.5124 204.084 43.9043 204.084 44.3308C201.861 44.3308 199.652 44.3308 197.356 44.3308C197.356 44.5613 197.341 60.076 197.37 67.6489C197.37 71.4066 199.361 71.6717 200.96 71.7869C201.934 71.8561 202.907 71.81 203.954 71.6947C203.954 71.9714 203.954 72.4209 203.954 72.9626C202.559 73.0318 201.178 73.1701 199.87 73.0087C197.312 72.6629 195.975 70.8302 196.019 67.2109C195.99 59.8339 196.004 44.6305 196.004 44.3653Z" fill="white"/>
<path d="M320.157 42.3809C320.157 42.8304 320.157 43.2338 320.157 43.6257C319.097 43.7525 318.036 43.8332 317.004 44.0291C314.33 44.5248 312.368 45.8042 310.958 47.6369C309.345 49.7348 308.458 52.017 308.342 54.4722C308.27 56.0859 308.211 57.6996 308.211 59.3133C308.197 63.6703 308.211 68.0274 308.211 72.3844C308.211 72.5919 308.211 72.7878 308.211 73.0414C307.775 73.0414 307.368 73.0414 306.918 73.0414C306.918 63.0825 306.918 53.112 306.918 43.1186C307.325 43.1186 307.703 43.1186 308.168 43.1186C308.168 45.3201 308.168 47.5217 308.168 49.9192C310.653 43.545 315.347 42.4615 320.157 42.3809Z" fill="white"/>
<path d="M145.242 43.1083C145.678 43.1083 146.056 43.1083 146.492 43.1083C146.492 45.2523 146.492 47.3847 146.492 49.5056C148.381 44.9756 152.044 42.3476 158.336 42.4052C158.336 42.8087 158.336 43.2236 158.336 43.6501C157.493 43.7423 151.971 43.5925 149.137 47.7766C147.655 49.69 146.884 51.7878 146.666 54.024C146.594 54.7271 146.536 55.4187 146.536 56.1218C146.521 61.5392 146.536 72.8006 146.536 73.0312C146.085 73.0312 145.678 73.0312 145.242 73.0312C145.242 63.0838 145.242 53.1249 145.242 43.1083Z" fill="white"/>
<path d="M187.664 73.0533C187.228 73.0533 186.836 73.0533 186.414 73.0533C186.414 63.0713 186.414 53.1009 186.414 43.1074C186.836 43.1074 187.228 43.1074 187.664 43.1074C187.664 53.0894 187.664 63.0483 187.664 73.0533Z" fill="white"/>
<path d="M187.664 37.4139C187.228 37.4139 186.85 37.4139 186.414 37.4139C186.414 35.4659 186.414 33.5179 186.414 31.5469C186.821 31.5469 187.228 31.5469 187.664 31.5469C187.664 33.4949 187.664 35.4198 187.664 37.4139Z" fill="white"/>
</svg>
