<svg width="50" height="20" viewBox="0 0 50 20" fill="none" xmlns="http://www.w3.org/2000/svg">
<g clip-path="url(#clip0_4_8)">
<path d="M-2.74181e-06 9.70874L48.5437 9.70874" stroke="white" stroke-width="2"/>
<path d="M39.8058 18.4466L48.5437 9.70874L39.8058 0.970875" stroke="white" stroke-width="2"/>
</g>
<defs>
<clipPath id="clip0_4_8">
<rect width="50" height="19.4175" fill="white" transform="translate(50 19.4175) rotate(-180)"/>
</clipPath>
</defs>
</svg>
