<svg width="18" height="14" viewBox="0 0 18 14" fill="none" xmlns="http://www.w3.org/2000/svg">
<g clip-path="url(#clip0_8_8)">
<path d="M9 13.6984V1.35" stroke="black" stroke-width="2"/>
<path d="M17.1 10.2127L9 1.35044L0.900002 10.2127" stroke="black" stroke-width="2"/>
</g>
<defs>
<clipPath id="clip0_8_8">
<rect width="18" height="13.95" fill="white"/>
</clipPath>
</defs>
</svg>
